0,38,0,0
1,48,0,0
2,58,0,0
3,68,0,0
4,78,0,0
5,88,0,0
6,98,0,0
7,108,0,0
8,118,0,0
9,128,0,0
10,138,0,0
11,148,0,0
12,158,0,0
13,168,0,0
14,178,0,0
15,188,0,0
16,198,0,0
17,208,0,0
18,218,0,0
19,228,0,0
20,238,0,0
21,248,0,0
22,258,0,0
23,268,0,0
24,278,0,0
25,288,0,0
26,298,0,0
27,308,0,0
28,318,0,0
29,328,0,0
30,338,0,0
31,348,0,0
32,358,0,0
33,368,0,0
34,378,0,0
35,388,0,0
36,398,0,0
37,408,0,0
38,418,0,0
39,428,0,0
40,438,0,0
41,448,0,0
42,458,0,0
43,468,0,0
44,478,0,0
45,488,0,0
46,498,0,0
47,508,70,0
48,518,70,12
49,528,70,38
50,538,70,54
51,548,70,58
52,558,70,58
53,568,70,58
54,578,70,60
55,588,70,60
56,598,70,60
57,608,70,62
58,618,70,64
59,628,70,64
60,638,70,65
61,648,70,65
62,658,70,66
63,668,70,66
64,678,70,67
65,688,70,68
66,698,70,67
67,708,70,68
68,718,70,68
69,728,70,68
70,738,70,69
71,748,70,68
72,758,70,69
73,768,70,69
74,778,70,69
75,788,70,70
76,798,70,69
77,808,70,69
78,818,70,70
79,828,70,69
80,838,70,70
81,848,70,70
82,858,70,70
83,868,70,69
84,878,70,70
85,888,70,70
86,898,70,69
87,908,70,70
88,918,70,70
89,928,70,70
90,938,70,70
91,948,70,70
92,958,70,70
93,968,70,70
94,978,70,70
95,988,70,70
96,998,70,69
97,1008,70,70
98,1018,70,70
99,1028,70,71
100,1038,70,70
101,1048,70,70
102,1058,70,69
103,1068,70,70
104,1078,70,70
105,1088,70,71
106,1098,70,69
107,1108,70,70
108,1118,70,70
109,1128,70,71
110,1138,70,70
111,1148,70,69
112,1158,70,70
113,1168,70,71
114,1178,70,69
115,1188,70,70
116,1198,70,70
117,1208,70,71
118,1218,70,69
119,1228,70,70
120,1238,70,70
121,1248,70,71
122,1258,70,69
123,1268,70,71
124,1278,70,69
125,1288,70,70
126,1298,70,70
127,1308,70,70
128,1318,70,70
129,1328,70,71
130,1338,70,69
131,1348,70,71
132,1358,70,69
133,1368,70,70
134,1378,70,70
135,1388,70,71
136,1398,70,69
137,1408,70,70
138,1418,70,70
139,1428,70,71
140,1438,70,69
141,1448,70,71
142,1458,70,69
143,1468,70,71
144,1478,70,69
145,1488,70,70
146,1498,70,70
147,1508,70,71
148,1518,70,69
149,1528,70,70
150,1538,70,70
151,1548,70,71
152,1558,70,69
153,1568,70,71
154,1578,70,69
155,1588,70,71
156,1598,70,69
157,1608,70,70
158,1618,70,70
159,1628,70,71
160,1638,70,69
161,1648,70,70
162,1658,70,70
163,1668,70,71
164,1678,70,70
165,1688,70,70
166,1698,70,69
167,1708,70,70
168,1718,70,70
169,1728,70,70
170,1738,70,70
171,1748,70,71
172,1758,70,69
173,1768,70,70
174,1778,70,70
175,1788,70,71
176,1798,70,70
177,1808,70,69
178,1818,70,70
179,1828,70,70
180,1838,70,70
181,1848,70,71
182,1858,70,69
183,1868,70,70
184,1878,70,70
185,1888,70,71
186,1898,70,70
187,1908,70,70
188,1918,70,69
189,1928,70,70
190,1938,70,70
191,1948,70,70
192,1958,70,70
193,1968,70,71
194,1978,70,69
195,1988,70,71
196,1998,70,69
197,2008,70,70
198,2018,70,70
199,2028,70,71